{
   "abstract" : "Parse AWS config files",
   "author" : [
      "Jos\u00e9 Joaqu\u00edn Atria <jjatria@cpan.org>"
   ],
   "dynamic_config" : 0,
   "generated_by" : "Dist::Zilla version 6.020, CPAN::Meta::Converter version 2.150010",
   "license" : [
      "perl_5"
   ],
   "meta-spec" : {
      "url" : "http://search.cpan.org/perldoc?CPAN::Meta::Spec",
      "version" : 2
   },
   "name" : "Config-AWS",
   "no_index" : {
      "directory" : [
         "eg",
         "examples",
         "inc",
         "share",
         "t",
         "xt"
      ]
   },
   "prereqs" : {
      "configure" : {
         "requires" : {
            "Module::Build::Tiny" : "0.034",
            "perl" : "5.010"
         }
      },
      "develop" : {
         "requires" : {
            "File::Spec" : "0",
            "IO::Handle" : "0",
            "IPC::Open3" : "0",
            "Test::More" : "0",
            "Test::Pod" : "1.41"
         }
      },
      "runtime" : {
         "requires" : {
            "Exporter::Tiny" : "1",
            "Path::Tiny" : "0.076",
            "Ref::Util" : "0",
            "perl" : "5.010"
         }
      },
      "test" : {
         "recommends" : {
            "CPAN::Meta" : "2.120900"
         },
         "requires" : {
            "ExtUtils::MakeMaker" : "0",
            "File::Spec" : "0",
            "Test2::Tools::Spec" : "0",
            "Test2::V0" : "0",
            "Test::More" : "0",
            "perl" : "5.010"
         }
      }
   },
   "provides" : {
      "Config::AWS" : {
         "file" : "lib/Config/AWS.pm",
         "version" : "0.090002"
      }
   },
   "release_status" : "testing",
   "resources" : {
      "bugtracker" : {
         "mailto" : "jjatria at cpan.org",
         "web" : "https://gitlab.com/jjatria/Config-AWS/issues"
      },
      "repository" : {
         "type" : "git",
         "url" : "git://gitlab.com/jjatria/Config-AWS.git",
         "web" : "https://gitlab.com/jjatria/Config-AWS"
      }
   },
   "version" : "0.090002",
   "x_Dist_Zilla" : {
      "perl" : {
         "version" : "5.034000"
      },
      "plugins" : [
         {
            "class" : "Dist::Zilla::Plugin::Git::GatherDir",
            "config" : {
               "Dist::Zilla::Plugin::GatherDir" : {
                  "exclude_filename" : [
                     "Build.PL",
                     "LICENSE",
                     "META.json",
                     "README.md",
                     "TODO",
                     "cpanfile",
                     "dist.ini"
                  ],
                  "exclude_match" : [],
                  "follow_symlinks" : 0,
                  "include_dotfiles" : 0,
                  "prefix" : "",
                  "prune_directory" : [],
                  "root" : "."
               },
               "Dist::Zilla::Plugin::Git::GatherDir" : {
                  "include_untracked" : 0
               }
            },
            "name" : "@Starter::Git/Git::GatherDir",
            "version" : "2.047"
         },
         {
            "class" : "Dist::Zilla::Plugin::MetaYAML",
            "name" : "@Starter::Git/MetaYAML",
            "version" : "6.020"
         },
         {
            "class" : "Dist::Zilla::Plugin::MetaJSON",
            "name" : "@Starter::Git/MetaJSON",
            "version" : "6.020"
         },
         {
            "class" : "Dist::Zilla::Plugin::License",
            "name" : "@Starter::Git/License",
            "version" : "6.020"
         },
         {
            "class" : "Dist::Zilla::Plugin::PodSyntaxTests",
            "name" : "@Starter::Git/PodSyntaxTests",
            "version" : "6.020"
         },
         {
            "class" : "Dist::Zilla::Plugin::Test::ReportPrereqs",
            "name" : "@Starter::Git/Test::ReportPrereqs",
            "version" : "0.028"
         },
         {
            "class" : "Dist::Zilla::Plugin::Test::Compile",
            "config" : {
               "Dist::Zilla::Plugin::Test::Compile" : {
                  "bail_out_on_fail" : 0,
                  "fail_on_warning" : "author",
                  "fake_home" : 0,
                  "filename" : "xt/author/00-compile.t",
                  "module_finder" : [
                     ":InstallModules"
                  ],
                  "needs_display" : 0,
                  "phase" : "develop",
                  "script_finder" : [
                     ":PerlExecFiles"
                  ],
                  "skips" : [],
                  "switch" : []
               }
            },
            "name" : "@Starter::Git/Test::Compile",
            "version" : "2.058"
         },
         {
            "class" : "Dist::Zilla::Plugin::ModuleBuildTiny",
            "config" : {
               "Dist::Zilla::Role::TestRunner" : {
                  "default_jobs" : 1
               }
            },
            "name" : "@Starter::Git/ModuleBuildTiny",
            "version" : "0.015"
         },
         {
            "class" : "Dist::Zilla::Plugin::Manifest",
            "name" : "@Starter::Git/Manifest",
            "version" : "6.020"
         },
         {
            "class" : "Dist::Zilla::Plugin::PruneCruft",
            "name" : "@Starter::Git/PruneCruft",
            "version" : "6.020"
         },
         {
            "class" : "Dist::Zilla::Plugin::ManifestSkip",
            "name" : "@Starter::Git/ManifestSkip",
            "version" : "6.020"
         },
         {
            "class" : "Dist::Zilla::Plugin::RunExtraTests",
            "config" : {
               "Dist::Zilla::Role::TestRunner" : {
                  "default_jobs" : 1
               }
            },
            "name" : "@Starter::Git/RunExtraTests",
            "version" : "0.029"
         },
         {
            "class" : "Dist::Zilla::Plugin::Git::Check",
            "config" : {
               "Dist::Zilla::Plugin::Git::Check" : {
                  "untracked_files" : "die"
               },
               "Dist::Zilla::Role::Git::DirtyFiles" : {
                  "allow_dirty" : [
                     "Changes",
                     "dist.ini"
                  ],
                  "allow_dirty_match" : [],
                  "changelog" : "Changes"
               },
               "Dist::Zilla::Role::Git::Repo" : {
                  "git_version" : "2.33.1",
                  "repo_root" : "."
               }
            },
            "name" : "@Starter::Git/Git::Check",
            "version" : "2.047"
         },
         {
            "class" : "Dist::Zilla::Plugin::RewriteVersion",
            "config" : {
               "Dist::Zilla::Plugin::RewriteVersion" : {
                  "add_tarball_name" : 0,
                  "finders" : [
                     ":ExecFiles",
                     ":InstallModules"
                  ],
                  "global" : 0,
                  "skip_version_provider" : 0
               }
            },
            "name" : "@Starter::Git/RewriteVersion",
            "version" : "0.018"
         },
         {
            "class" : "Dist::Zilla::Plugin::NextRelease",
            "name" : "@Starter::Git/NextRelease",
            "version" : "6.020"
         },
         {
            "class" : "Dist::Zilla::Plugin::CopyFilesFromRelease",
            "config" : {
               "Dist::Zilla::Plugin::CopyFilesFromRelease" : {
                  "filename" : [
                     "Build.PL",
                     "LICENSE",
                     "META.json",
                     "README.md"
                  ],
                  "match" : []
               }
            },
            "name" : "@Starter::Git/CopyFilesFromRelease",
            "version" : "0.007"
         },
         {
            "class" : "Dist::Zilla::Plugin::Regenerate::AfterReleasers",
            "config" : {
               "Dist::Zilla::Plugin::Regenerate::AfterReleasers" : {
                  "plugins" : [
                     "@Starter::Git/CopyFilesFromRelease"
                  ]
               },
               "Dist::Zilla::Role::Regenerator" : {
                  "$Dist::Zilla::Role::Regenerator::VERSION" : "0.001002"
               }
            },
            "name" : "@Starter::Git/Regenerate::AfterReleasers",
            "version" : "0.001002"
         },
         {
            "class" : "Dist::Zilla::Plugin::Git::Commit",
            "config" : {
               "Dist::Zilla::Plugin::Git::Commit" : {
                  "add_files_in" : [
                     "/"
                  ],
                  "commit_msg" : "Release v%V%t",
                  "signoff" : 0
               },
               "Dist::Zilla::Role::Git::DirtyFiles" : {
                  "allow_dirty" : [
                     "Build.PL",
                     "Changes",
                     "LICENSE",
                     "META.json",
                     "README.md",
                     "dist.ini"
                  ],
                  "allow_dirty_match" : [],
                  "changelog" : "Changes"
               },
               "Dist::Zilla::Role::Git::Repo" : {
                  "git_version" : "2.33.1",
                  "repo_root" : "."
               },
               "Dist::Zilla::Role::Git::StringFormatter" : {
                  "time_zone" : "local"
               }
            },
            "name" : "@Starter::Git/Release_Commit",
            "version" : "2.047"
         },
         {
            "class" : "Dist::Zilla::Plugin::Git::Tag",
            "config" : {
               "Dist::Zilla::Plugin::Git::Tag" : {
                  "branch" : null,
                  "changelog" : "Changes",
                  "signed" : 0,
                  "tag" : "v0.090002",
                  "tag_format" : "v%v",
                  "tag_message" : ""
               },
               "Dist::Zilla::Role::Git::Repo" : {
                  "git_version" : "2.33.1",
                  "repo_root" : "."
               },
               "Dist::Zilla::Role::Git::StringFormatter" : {
                  "time_zone" : "local"
               }
            },
            "name" : "@Starter::Git/Git::Tag",
            "version" : "2.047"
         },
         {
            "class" : "Dist::Zilla::Plugin::BumpVersionAfterRelease",
            "config" : {
               "Dist::Zilla::Plugin::BumpVersionAfterRelease" : {
                  "finders" : [
                     ":ExecFiles",
                     ":InstallModules"
                  ],
                  "global" : 0,
                  "munge_makefile_pl" : 1
               }
            },
            "name" : "@Starter::Git/BumpVersionAfterRelease",
            "version" : "0.018"
         },
         {
            "class" : "Dist::Zilla::Plugin::Git::Commit",
            "config" : {
               "Dist::Zilla::Plugin::Git::Commit" : {
                  "add_files_in" : [],
                  "commit_msg" : "Bump version",
                  "signoff" : 0
               },
               "Dist::Zilla::Role::Git::DirtyFiles" : {
                  "allow_dirty" : [
                     "Changes",
                     "dist.ini"
                  ],
                  "allow_dirty_match" : [
                     "(?^:^)"
                  ],
                  "changelog" : "Changes"
               },
               "Dist::Zilla::Role::Git::Repo" : {
                  "git_version" : "2.33.1",
                  "repo_root" : "."
               },
               "Dist::Zilla::Role::Git::StringFormatter" : {
                  "time_zone" : "local"
               }
            },
            "name" : "@Starter::Git/Version_Bump_Commit",
            "version" : "2.047"
         },
         {
            "class" : "Dist::Zilla::Plugin::TestRelease",
            "name" : "@Starter::Git/TestRelease",
            "version" : "6.020"
         },
         {
            "class" : "Dist::Zilla::Plugin::ConfirmRelease",
            "name" : "@Starter::Git/ConfirmRelease",
            "version" : "6.020"
         },
         {
            "class" : "Dist::Zilla::Plugin::UploadToCPAN",
            "name" : "@Starter::Git/UploadToCPAN",
            "version" : "6.020"
         },
         {
            "class" : "Dist::Zilla::Plugin::MetaConfig",
            "name" : "@Starter::Git/MetaConfig",
            "version" : "6.020"
         },
         {
            "class" : "Dist::Zilla::Plugin::MetaNoIndex",
            "name" : "@Starter::Git/MetaNoIndex",
            "version" : "6.020"
         },
         {
            "class" : "Dist::Zilla::Plugin::MetaProvides::Package",
            "config" : {
               "Dist::Zilla::Plugin::MetaProvides::Package" : {
                  "finder_objects" : [
                     {
                        "class" : "Dist::Zilla::Plugin::FinderCode",
                        "name" : "@Starter::Git/MetaProvides::Package/AUTOVIV/:InstallModulesPM",
                        "version" : "6.020"
                     }
                  ],
                  "include_underscores" : 0
               },
               "Dist::Zilla::Role::MetaProvider::Provider" : {
                  "$Dist::Zilla::Role::MetaProvider::Provider::VERSION" : "2.002004",
                  "inherit_missing" : 1,
                  "inherit_version" : 1,
                  "meta_noindex" : 1
               },
               "Dist::Zilla::Role::ModuleMetadata" : {
                  "Module::Metadata" : "1.000037",
                  "version" : "0.006"
               }
            },
            "name" : "@Starter::Git/MetaProvides::Package",
            "version" : "2.004003"
         },
         {
            "class" : "Dist::Zilla::Plugin::ShareDir",
            "name" : "@Starter::Git/ShareDir",
            "version" : "6.020"
         },
         {
            "class" : "Dist::Zilla::Plugin::ExecDir",
            "name" : "@Starter::Git/ExecDir",
            "version" : "6.020"
         },
         {
            "class" : "Dist::Zilla::Plugin::StaticInstall",
            "config" : {
               "Dist::Zilla::Plugin::StaticInstall" : {
                  "dry_run" : 0,
                  "mode" : "on"
               }
            },
            "name" : "StaticInstall",
            "version" : "0.012"
         },
         {
            "class" : "Dist::Zilla::Plugin::ReadmeAnyFromPod",
            "config" : {
               "Dist::Zilla::Role::FileWatcher" : {
                  "version" : "0.006"
               }
            },
            "name" : "MarkdownInBuild",
            "version" : "0.163250"
         },
         {
            "class" : "Dist::Zilla::Plugin::MinimumPerl",
            "name" : "MinimumPerl",
            "version" : "1.006"
         },
         {
            "class" : "Dist::Zilla::Plugin::Prereqs::FromCPANfile",
            "name" : "Prereqs::FromCPANfile",
            "version" : "0.08"
         },
         {
            "class" : "Dist::Zilla::Plugin::Repository",
            "name" : "Repository",
            "version" : "0.24"
         },
         {
            "class" : "Dist::Zilla::Plugin::Bugtracker",
            "name" : "Bugtracker",
            "version" : "1.111080"
         },
         {
            "class" : "Dist::Zilla::Plugin::Git::Contributors",
            "config" : {
               "Dist::Zilla::Plugin::Git::Contributors" : {
                  "git_version" : "2.33.1",
                  "include_authors" : 0,
                  "include_releaser" : 1,
                  "order_by" : "name",
                  "paths" : []
               }
            },
            "name" : "Git::Contributors",
            "version" : "0.036"
         },
         {
            "class" : "Dist::Zilla::Plugin::FinderCode",
            "name" : ":InstallModules",
            "version" : "6.020"
         },
         {
            "class" : "Dist::Zilla::Plugin::FinderCode",
            "name" : ":IncModules",
            "version" : "6.020"
         },
         {
            "class" : "Dist::Zilla::Plugin::FinderCode",
            "name" : ":TestFiles",
            "version" : "6.020"
         },
         {
            "class" : "Dist::Zilla::Plugin::FinderCode",
            "name" : ":ExtraTestFiles",
            "version" : "6.020"
         },
         {
            "class" : "Dist::Zilla::Plugin::FinderCode",
            "name" : ":ExecFiles",
            "version" : "6.020"
         },
         {
            "class" : "Dist::Zilla::Plugin::FinderCode",
            "name" : ":PerlExecFiles",
            "version" : "6.020"
         },
         {
            "class" : "Dist::Zilla::Plugin::FinderCode",
            "name" : ":ShareFiles",
            "version" : "6.020"
         },
         {
            "class" : "Dist::Zilla::Plugin::FinderCode",
            "name" : ":MainModule",
            "version" : "6.020"
         },
         {
            "class" : "Dist::Zilla::Plugin::FinderCode",
            "name" : ":AllFiles",
            "version" : "6.020"
         },
         {
            "class" : "Dist::Zilla::Plugin::FinderCode",
            "name" : ":NoFiles",
            "version" : "6.020"
         },
         {
            "class" : "Dist::Zilla::Plugin::FinderCode",
            "name" : "@Starter::Git/MetaProvides::Package/AUTOVIV/:InstallModulesPM",
            "version" : "6.020"
         }
      ],
      "zilla" : {
         "class" : "Dist::Zilla::Dist::Builder",
         "config" : {
            "is_trial" : 1
         },
         "version" : "6.020"
      }
   },
   "x_contributors" : [
      "James Raspass <jraspass@gmail.com>"
   ],
   "x_generated_by_perl" : "v5.34.0",
   "x_serialization_backend" : "Cpanel::JSON::XS version 4.26",
   "x_spdx_expression" : "Artistic-1.0-Perl OR GPL-1.0-or-later",
   "x_static_install" : 1
}

